[npc]
NULL
down
0
11
5
NULL
0
-1
0
false
false
false
[/npc]
[npc]
Receptionist
down
328
11
4
NULL
0
-1
1
false
false
false
[/npc]
[warp]
8
10
24
28
-5
0
0
[/warp]
[warp]
9
10
25
28
-5
0
0
[/warp]
[warp]
15
3
16
2
-47
-50
0
[/warp]
[warp]
4
3
2
4
-31
-31
0
[/warp]
