[npc]
Move Deleter
right
278
4
6
NULL
0
-1
0,1,2
false
false
false
[/npc]
[npc]
MoveRelearner_1-Lava Cookie
left
144
7
6
NULL
0
-1
3,4,5
false
false
false
[/npc]
[warp]
4
12
13
41
0
-2
0
[/warp]
[warp]
5
12
13
41
0
-2
0
[/warp]
