[npc]
Supernerd Hugh
right
352
12
26
Seadra,39
1
-1
0
false
false
false
[/npc]
[npc]
Blackbelt Kiyo
down
367
36
8
Hitmonchan,40,Hitmonlee,40
1
-1
1
false
false
false
[/npc]
[warp]
17
34
24
3
-33
-42
0
[/warp]
[warp]
3
5
8
9
-33
-43
0
[/warp]
