[npc]
Bird Keeper Denis
left
269
8
3
Spearow,18,Fearow,20,Spearow,18
3
-1
0
false
false
false
[/npc]
[npc]
Sailor Ernest
down
395
8
11
Machop,18,Poliwhirl,18,Machop,18
3
-1
1
false
false
false
[/npc]
[warp]
3
5
2
5
-36
-35
0
[/warp]
[warp]
16
7
16
7
-36
-35
0
[/warp]
[warp]
17
7
17
7
-36
-35
0
[/warp]
[warp]
9
7
8
7
-36
-35
0
[/warp]
[warp]
9
15
8
15
-34
-33
0
[/warp]
