[npc]
Gentleman Alfred
left
280
17
8
Noctowl,20
1
-1
0
false
false
false
[/npc]
[npc]
Sailor Huey
right
395
9
3
Poliwag,18,Poliwhirl,18
2
-1
1
false
false
false
[/npc]
[warp]
3
11
2
11
-39
-38
0
[/warp]
[warp]
16
13
16
13
-39
-38
0
[/warp]
[warp]
17
13
17
13
-39
-38
0
[/warp]
[warp]
5
3
4
3
-37
-36
0
[/warp]
