[npc]
Cherrygrove citizen
down
317
15
13
NULL
0
-1
0,1,2
false
false
false
[/npc]
[npc]
Cherrygrove citizen
down
274
10
12
NULL
0
-1
3,4
false
false
false
[/npc]
[warp]
11
16
17
10
-2
0
0
[/warp]
