[npc]
Battlefrontier - battlepalace lady - lvl 50
down
328
20
5
NULL
0
-1
1
false
false
false
[/npc]
[npc]
Battlefrontier - battlepalace lady - any lvl
down
327
6
5
NULL
0
-1
1
false
false
false
[/npc]
[npc]
NULL
down
0
15
3
NULL
0
-1
2
false
true
false
[/npc]
[warp]
14
11
108
65
29
26
0
[/warp]