[npc]
Advisor
down
344
25
39
NULL
0
-1
0,1,2,3,4
false
false
false
[/npc]
[npc]
Twin May
down
340
17
28
Ledyba,10
1
-1
5
false
false
false
[/npc]
[npc]
Twin Amy
down
340
29
28
Spinarak,10
1
-1
6
false
false
false
[/npc]
[npc]
Bug Catcher Al
down
354
23
27
Caterpie,12,Weedle,12
2
-1
7,8
false
false
false
[/npc]
[npc]
Bug Catcher Benny
left
354
17
17
Weedle,7,Kakuna,9,Beedrill,12
3
-1
9
false
false
false
[/npc]
[npc]
Bug Catcher Josh
down
354
29
17
Paras,13
1
-1
10,11
false
false
false
[/npc]
[npc]
Bugsy
down
285
23
16
Butterfree,22,Beedrill,22,Parasect,22,Heracross,22,Yanma,22,Scyther,22
6
9
12,13,14
false
false
false
[/npc]
[npc]
NULL
down
0
19
28
NULL
0
-1
15
false
false
false
[/npc]
[npc]
NULL
down
0
23
28
NULL
0
-1
15
false
false
false
[/npc]
[warp]
23
41
19
22
-4
2
0
[/warp]
[warp]
17
36
29
29
-50
-50
0
[/warp]
[warp]
29
30
17
37
-50
-50
0
[/warp]
[warp]
29
36
23
29
-50
-50
0
[/warp]
[warp]
23
30
29
37
-50
-50
0
[/warp]
[warp]
23
36
17
29
-50
-50
0
[/warp]
[warp]
17
30
29
37
-50
-50
0
[/warp]
[warp]
23
24
17
18
-50
-50
0
[/warp]
[warp]
17
19
17
25
-50
-50
0
[/warp]
[warp]
17
24
29
18
-50
-50
0
[/warp]
[warp]
29
19
29
25
-50
-50
0
[/warp]
[warp]
29
24
23
18
-50
-50
0
[/warp]
[warp]
23
19
23
37
-50
-50
0
[/warp]






