[npc]
Dragon's Den Guard
down
167
23
4
NULL
0
-1
0,1
false
false
false
[/npc]
[npc]
NULL
down
0
40
30
NULL
0
-1
2,3
false
false
false
[/npc]
[npc]
NULL
down
0
10
40
NULL
0
-1
4
false
false
false
[/npc]
[npc]
NULL
down
0
21
16
NULL
0
-1
5,6,7
false
false
false
[/npc]
[npc]
NULL
down
0
21
16
NULL
0
-1
5,6,7
false
false
false
[/npc]
[npc]
NULL
down
0
26
4
NULL
0
-1
8
false
false
false
[/npc]
[warp]
42
10
36
27
-32
-46
0
[/warp]
[warp]
21
37
5
7
-46
-28
0
[/warp]
[warp]
30
37
15
16
-33
-34
0
[/warp]
[warp]
23
14
22
91
-46
-46
0
[/warp]
[warp]
24
1
5
7
-47
-47
0
[/warp]
[warp]
17
26
4
11
-44
-44
0
[/warp]
[warp]
35
27
4
11
-33
-36
0
[/warp]
[warp]
13
40
4
11
-33
-37
0
[/warp]
