[warp]
9
46
15
16
7
49
0
[/warp]
[warp]
5
55
16
40
-46
47
0
[/warp]
[warp]
16
55
14
23
-46
-39
0
[/warp]
[warp]
12
55
19
30
-46
-40
0
[/warp]
[warp]
15
45
5
7
-46
-27
0
[/warp]