[warp]
27
35
15
16
9
-49
0
[/warp]
[warp]
14
28
5
7
9
-50
0
[/warp]
[warp]
4
10
24
103
-42
48
0
[/warp]
[warp]
7
26
8
9
-38
-27
0
[/warp]
[warp]
51
29
10
8
-38
-31
0
[/warp]
[warp]
33
8
21
14
-38
-39
0
[/warp]
[warp]
40
8
10
8
-38
-42
0
[/warp]
[warp]
49
45
12
11
-41
-36
0
[/warp]
[warp]
11
22
12
12
-41
-33
0
[/warp]
[warp]
12
22
12
12
-41
-33
0
[/warp]








