[npc]
NULL
down
0
29
14
NULL
0
-1
0
false
false
false
[/npc]
[npc]
NULL
down
0
42
14
NULL
0
-1
1
false
false
false
[/npc]
[npc]
NULL
down
0
50
14
NULL
0
-1
2,3
false
false
false
[/npc]
[npc]
NULL
down
0
49
22
NULL
0
-1
4,5
false
false
false
[/npc]
[npc]
NULL
down
0
29
31
NULL
0
-1
6
false
false
false
[/npc]
[npc]
NULL
down
0
40
38
NULL
0
-1
7
false
false
false
[/npc]
[npc]
NULL
down
0
13
25
NULL
0
-1
8
false
false
false
[/npc]
[npc]
NULL
down
0
19
15
NULL
0
-1
9
false
false
false
[/npc]
[npc]
NULL
down
0
18
30
NULL
0
-1
10,11
false
false
false
[/npc]
[npc]
NULL
down
0
54
25
NULL
0
-1
10,12
false
false
false
[/npc]
[warp]
79
25
25
8
7
-2
0
[/warp]
[warp]
79
26
25
9
7
-2
0
[/warp]
[warp]
79
27
25
10
7
-2
0
[/warp]
[warp]
79
28
25
11
7
-2
0
[/warp]
[warp]
24
38
15
16
-47
-30
0
[/warp]
[warp]
39
21
5
7
-47
-29
0
[/warp]
[warp]
40
12
6
13
-48
-39
0
[/warp]
[warp]
46
12
24
34
-47
-19
0
[/warp]
[warp]
26
14
5
9
-47
-24
0
[/warp]
[warp]
18
14
10
13
-50
-13
0
[/warp]
[warp]
33
30
7
418
-47
-18
0
[/warp]
[warp]
43
38
5
9
-50
-12
0
[/warp]
[warp]
27
21
5
9
-48
-40
0
[/warp]
[warp]
47
21
6
16
-49
-13
0
[/warp]
[warp]
31
8
5
2
-50
-32
0
[/warp]
[npc]
NULL
down
367
47
15
NULL
0
-1
13
false
false
false
[/npc]
[npc]
Tad
down
319
26
32
NULL
0
-1
14,15,16
false
false
false
[/npc]


